quarto-blog - Untitled
…
── Conflicts ────────────────────────────────────────── tidyverse_conflicts() ──
✖ dplyr::filter() masks stats::filter()
✖ dplyr::lag()    masks stats::lag()

Code

crossing(
  # total characters 
  character_n = c(26, 36, 52, 62, 74),
  # password length
  length = c(6, 7, 8, 10, 12), 
  possible_values = character_n ^ length
)

# A tibble: 125 × 3
   character_n length possible_values
         <dbl>  <dbl>           <dbl>
 1          26      6         3.09e 8
 2          26      6         7.84e10
 3          26      6         5.35e13
 4          26      6         8.39e17
 5          26      6         2.70e22
 6          26      7         3.09e 8
 7          26      7         7.84e10
 8          26      7         5.35e13
 9          26      7         8.39e17
10          26      7         2.70e22
# … with 115 more rows
…
